{"id":"1124","shelfmark":"T-S 13J33.12 + T-S NS 311.31","multifragment":"","type_en":"Letter","type_he":"מכתב","lang_en":"Hebrew","lang_he":"עברית","lang2_en":"","lang2_he":"","lang_note":"","origin":"","destination":"","region":"","date":"1025–1051","date_original":"","date_standard":"","date_inferred":"1025–1051","date_rationale":"Person mentioned","library":"ספריית קיימברידג' · ספריית קיימברידג'","library_raw":"CUL ; CUL","collection":"CUL, T-S ; CUL, T-S","description":"Letter from Shelomo b. Yehuda to an unidentified personality. Dating: ca. 1035 CE (per Gil) and ca. 1025–1051 CE based on the years when Shelomo b. Yehuda served as Gaʾon. Join: Oded Zinger.","tags":["Shelomo b. Yehuda"],"has_transcription":false,"has_translation":false,"iiif_urls":["https://cudl.lib.cam.ac.uk/iiif/MS-TS-00013-J-00033-00012"],"fragment_urls":["https://cudl.lib.cam.ac.uk/search?fileID=&keyword=T-s%2013J33.12&page=1&x=0&y=0"],"princeton_url":"https://geniza.princeton.edu/documents/1124/","mentioned":"Jerusalem","description_he":"מכתב משלמה בן יהודה לאישיות לא ידועה, בערך 1035.","tags_he":["מכתב","עברית"],"prev":"1123","next":"1125","pos":502,"total":35924}